{
  "prepare_queue": {
    "installed": [],
    "uninstalled": []
  },
  "config_munge": {
    "files": {
      "config.xml": {
        "parents": {
          "/*": [
            {
              "xml": "<feature name=\"QRScanner\"><param name=\"browser-package\" value=\"QRScanner\" /></feature>",
              "count": 1
            }
          ]
        }
      }
    }
  },
  "installed_plugins": {
    "cordova-plugin-qrscanner": {
      "PACKAGE_NAME": "com.Hotpotato.Casino"
    },
    "cordova-plugin-whitelist": {
      "PACKAGE_NAME": "com.Hotpotato.Casino"
    },
    "cordova-plugin-statusbar": {
      "PACKAGE_NAME": "com.Hotpotato.Casino"
    }
  },
  "dependent_plugins": {},
  "modules": [
    {
      "file": "plugins/cordova-plugin-qrscanner/www/www.min.js",
      "id": "cordova-plugin-qrscanner.QRScanner",
      "pluginId": "cordova-plugin-qrscanner",
      "clobbers": [
        "QRScanner"
      ]
    },
    {
      "file": "plugins/cordova-plugin-qrscanner/src/browser/plugin.min.js",
      "id": "cordova-plugin-qrscanner.QRScannerProxy",
      "pluginId": "cordova-plugin-qrscanner",
      "runs": true
    },
    {
      "file": "plugins/cordova-plugin-statusbar/www/statusbar.js",
      "id": "cordova-plugin-statusbar.statusbar",
      "pluginId": "cordova-plugin-statusbar",
      "clobbers": [
        "window.StatusBar"
      ]
    },
    {
      "file": "plugins/cordova-plugin-statusbar/src/browser/StatusBarProxy.js",
      "id": "cordova-plugin-statusbar.StatusBarProxy",
      "pluginId": "cordova-plugin-statusbar",
      "runs": true
    }
  ],
  "plugin_metadata": {
    "cordova-plugin-qrscanner": "2.5.0",
    "cordova-plugin-whitelist": "1.3.3",
    "cordova-plugin-statusbar": "2.4.1"
  }
}